<svg width="24" height="24" viewBox="0 0 24 24" fill="none" xmlns="http://www.w3.org/2000/svg">
<g clip-path="url(#clip0)">
<path d="M12 23.5361C18.4185 23.5361 23.6218 18.3452 23.6218 11.9419C23.6218 5.53856 18.4185 0.347656 12 0.347656C5.58143 0.347656 0.378174 5.53856 0.378174 11.9419C0.378174 18.3452 5.58143 23.5361 12 23.5361Z" stroke="#22CADE" stroke-miterlimit="22.9256"/>
<path d="M5.6001 16.9277H18.4001" stroke="#22CADE" stroke-miterlimit="22.9256"/>
<rect x="8.40005" y="7.9" width="2.95" height="0.8" rx="0.4" transform="rotate(90 8.40005 7.9)" stroke="#22CADE" stroke-width="0.8"/>
<rect x="16.4" y="7.9" width="2.95" height="0.8" rx="0.4" transform="rotate(90 16.4 7.9)" stroke="#22CADE" stroke-width="0.8"/>
</g>
<defs>
<clipPath id="clip0">
<rect width="24" height="24" fill="white"/>
</clipPath>
</defs>
</svg>
