<svg width="60" height="95" viewBox="0 0 60 95" fill="none" xmlns="http://www.w3.org/2000/svg">
<path d="M13.8643 1.72974C35.6367 7.32253 49.0668 23.4286 51.4086 42.1856C53.7505 60.9427 42.7982 75.2818 25.0526 86.2401" stroke="#22CADE" stroke-width="1.5" stroke-linecap="round"/>
<path fill-rule="evenodd" clip-rule="evenodd" d="M23.0475 79L30.3254 91.0951L20.639 88.6865L23.0475 79Z" fill="#22CADE"/>
</svg>
