<svg width="257" height="230" viewBox="0 0 257 230" fill="none" xmlns="http://www.w3.org/2000/svg">
    <g clip-path="url(#clip0)">
        <path fill-rule="evenodd" clip-rule="evenodd" d="M107.117 53.1951C113.142 50.357 120.389 52.9204 123.256 59.0293C126.09 65.0633 123.464 72.3541 117.43 75.1921C111.397 78.0302 104.125 75.4002 101.291 69.3579C98.4318 63.2573 101.083 56.0331 107.117 53.1951Z" fill="#FCD1B0"/>
        <path fill-rule="evenodd" clip-rule="evenodd" d="M112.743 57.6394C117.181 55.5587 122.516 57.4479 124.619 61.9339C126.705 66.3783 124.768 71.7381 120.33 73.8271C115.901 75.9162 110.549 73.977 108.463 69.5326C106.352 65.0466 108.305 59.7284 112.743 57.6394Z" fill="#F2B686"/>
        <path fill-rule="evenodd" clip-rule="evenodd" d="M254.623 90.4729C250.659 85.113 243.063 83.9312 237.653 87.9427C232.301 91.9127 231.154 99.5696 235.118 104.929C239.082 110.298 246.736 111.438 252.088 107.468C257.499 103.456 258.587 95.841 254.623 90.4729Z" fill="#FCD1B0"/>
        <path fill-rule="evenodd" clip-rule="evenodd" d="M247.559 91.7127C244.642 87.7678 239.049 86.9022 235.076 89.8484C231.129 92.7697 230.289 98.4042 233.206 102.358C236.124 106.294 241.75 107.143 245.689 104.222C249.67 101.267 250.476 95.6577 247.559 91.7127Z" fill="#F2B685"/>
        <path fill-rule="evenodd" clip-rule="evenodd" d="M168.449 142.349C168.449 142.349 177.741 153.285 180.226 165.769C180.226 165.769 197.678 161.374 203.787 162.157C203.787 162.157 206.363 153.976 215.904 154.666C225.453 155.349 225.71 176.788 213.843 175.323C213.843 175.323 191.237 186.692 178.422 187.034C165.524 187.375 157.105 170.163 157.105 170.163L168.449 142.349Z" fill="#F2B685"/>
        <path fill-rule="evenodd" clip-rule="evenodd" d="M120.222 184.97L123.489 186.951C123.489 186.951 130.968 195.215 129.422 207.782C127.785 220.267 104.839 226.209 74.3142 221.041L83.3396 188.157L120.222 184.97Z" fill="#F2B685"/>
        <path fill-rule="evenodd" clip-rule="evenodd" d="M143.866 99.9941L175.929 124.355C175.929 124.355 166.563 188.756 125.899 183.072C125.899 183.072 121.943 197.104 93.1463 193.317C93.1463 193.317 51.3601 187.982 51.5346 151.129C51.7922 114.201 87.7277 105.762 109.302 114.884C109.302 114.884 111.023 115.924 109.818 119.278C109.818 119.278 129.165 116.781 143.866 99.9941Z" fill="#FCD1B0"/>
        <path fill-rule="evenodd" clip-rule="evenodd" d="M125.899 183.072C125.899 183.072 121.943 197.104 93.1463 193.317C93.1463 193.317 51.3601 187.982 51.5346 151.129C51.7922 114.201 87.7277 105.762 109.302 114.884C109.302 114.884 111.023 115.924 109.818 119.278C109.818 119.278 84.4616 155.607 125.899 183.072Z" fill="#D6F3E1"/>
        <path fill-rule="evenodd" clip-rule="evenodd" d="M98.2989 179.718C97.8668 197.537 85.6583 225.518 76.0346 227.757C66.4025 230.079 29.7772 226.292 21.184 227.673C12.5907 229.047 3.98912 231.893 0.639908 228.015C-2.71761 224.145 7.33833 195.647 26.428 205.119C26.428 205.119 39.3262 197.711 48.1771 201.066C40.3567 142.523 99.2463 140.284 98.2989 179.718Z" fill="#FCD1B0"/>
        <path fill-rule="evenodd" clip-rule="evenodd" d="M11.6433 205.202C15.6823 202.872 20.6687 202.189 26.428 205.119C26.428 205.119 39.3262 197.712 48.1771 201.066C46.033 185.227 48.8669 173.517 53.9447 165.686C53.6788 166.634 46.1161 196.164 54.2855 206.575C54.2855 206.575 46.1992 201.756 35.8025 204.686C25.3144 207.699 22.9874 212.867 22.9874 212.867C22.9874 212.867 24.7077 203.562 11.6433 205.202Z" fill="#F2B685"/>
        <path fill-rule="evenodd" clip-rule="evenodd" d="M149.626 129.44C149.626 129.44 156.324 128.749 158.826 141.233C161.319 153.801 156.673 200.55 163.721 212.693C163.721 212.693 179.976 212.776 182.037 221.731C183.409 227.674 147.731 235.505 146.7 222.164C146.7 222.164 141.797 209.68 138.88 186.692C135.872 163.705 127.27 157.163 127.27 157.163C127.27 157.163 122.458 125.478 149.626 129.44Z" fill="#FCD1B0"/>
        <path fill-rule="evenodd" clip-rule="evenodd" d="M149.626 129.44C149.626 129.44 156.324 128.749 158.826 141.233C161.319 153.801 156.673 200.55 163.721 212.693C154.87 206.75 157.621 185.402 156.158 167.15C154.695 148.982 152.028 137.962 152.028 137.962C145.579 136.664 140.168 134.176 135.78 131.421C139.046 129.44 143.526 128.491 149.626 129.44Z" fill="#F2B685"/>
        <path fill-rule="evenodd" clip-rule="evenodd" d="M117.904 50.4903C103.975 103.606 124.353 130.647 170.685 138.304C217.541 142.091 243.761 120.651 243.071 65.8125C242.124 0.204193 134.492 -12.9624 117.904 50.4903Z" fill="#FCD1B0"/>
        <path fill-rule="evenodd" clip-rule="evenodd" d="M122.973 93.7107C128.907 116.865 148.08 129.956 178.165 134.95C192.351 136.065 204.734 134.867 215.048 131.163C203.438 137.53 188.57 139.769 170.685 138.304C140.683 133.402 121.602 120.31 115.577 97.3228C113.433 88.8835 113.001 79.0709 114.372 67.7936C115.153 62.3672 116.267 56.5995 117.904 50.4906C122.799 31.6312 135.78 19.4966 151.687 13.5542C139.221 20.2707 129.422 31.29 125.292 47.1282C123.148 55.4843 121.768 63.1412 121.253 70.2904C120.655 78.9877 121.17 86.8194 122.973 93.7107Z" fill="#F2B685"/>
        <path d="M197.254 80.1275C195.509 86.253 199.049 92.6366 205.158 94.3844C211.275 96.1321 217.649 92.5866 219.394 86.4611C221.139 80.3439 217.591 73.9603 211.482 72.2125C205.366 70.4647 199 74.0102 197.254 80.1275Z" fill="white"/>
        <path d="M198.85 81.3593C197.553 85.9035 200.18 90.6391 204.726 91.9375C209.263 93.2358 213.992 90.6059 215.297 86.0533C216.585 81.5091 213.959 76.7734 209.413 75.4751C204.875 74.1767 200.146 76.8067 198.85 81.3593Z" fill="#382316"/>
        <path d="M203.521 80.5103C203.163 81.767 203.886 83.0654 205.141 83.4233C206.388 83.7811 207.692 83.0571 208.05 81.8086C208.407 80.5519 207.684 79.2452 206.429 78.8957C205.183 78.5378 203.878 79.2619 203.521 80.5103Z" fill="white"/>
        <path d="M142.744 64.5474C140.999 70.6729 144.54 77.0482 150.648 78.7959C156.765 80.5437 163.139 76.9982 164.884 70.881C166.629 64.7554 163.089 58.3719 156.972 56.6241C150.856 54.8763 144.49 58.4218 142.744 64.5474Z" fill="white"/>
        <path d="M144.34 65.7708C143.044 70.3233 145.67 75.059 150.216 76.3573C154.754 77.6557 159.482 75.0173 160.787 70.4731C162.075 65.9289 159.449 61.1849 154.903 59.8866C150.365 58.5882 145.637 61.2265 144.34 65.7708Z" fill="#382316"/>
        <path d="M149.011 64.9302C148.653 66.1786 149.377 67.4853 150.631 67.8432C151.878 68.201 153.183 67.4686 153.54 66.2202C153.898 64.9718 153.175 63.6651 151.92 63.3073C150.673 62.9494 149.368 63.6735 149.011 64.9302Z" fill="white"/>
        <path d="M170.968 85.121C170.968 85.121 171.982 78.7707 177.791 80.3437C183.816 81.9833 180.849 88.6915 180.849 88.6915L170.968 85.121Z" fill="#E2B585"/>
        <path d="M167.934 124.546C147.116 120.618 148.038 100.668 149.418 92.1875C149.759 90.1152 151.803 88.8002 153.814 89.3744L196.008 101.442C198.035 102.017 199.083 104.239 198.252 106.178C195.21 113.327 186.55 128.05 167.934 124.546Z" fill="#FEA3CF"/>
        <path d="M188.495 119.719C178.697 107.327 164.361 98.646 148.828 98.0884C148.836 97.6972 148.861 97.3227 148.878 96.9482L148.886 96.8982L148.919 96.4405V96.3656V96.3406L148.928 96.2407L148.961 95.8496L148.969 95.7497L149.002 95.3668L149.011 95.3419L149.019 95.267V95.2586L149.036 95.0839L149.044 94.984L149.052 94.8924L149.069 94.7842L149.102 94.4347L149.11 94.3681L149.119 94.3431L149.16 93.9853L149.169 93.902L149.177 93.8105L149.21 93.5525L149.227 93.4692V93.4526L149.235 93.386L149.252 93.3028L149.285 93.0531L149.293 93.0115V92.9699L149.31 92.8867L149.343 92.6453L149.351 92.587L149.393 92.3374L149.401 92.2624L149.418 92.1875C149.759 90.1152 151.803 88.8002 153.814 89.3744L196.008 101.442C198.036 102.017 199.083 104.239 198.252 106.178L198.11 106.519L198.102 106.528L198.027 106.711L197.952 106.869L197.944 106.886L197.786 107.227L197.778 107.26L197.687 107.451L197.62 107.601L197.595 107.643L197.504 107.834L197.437 107.976L197.412 108.034L197.313 108.234L197.288 108.284L197.213 108.434L197.113 108.642H197.105L197.005 108.841L196.897 109.049C195.143 112.437 192.426 116.523 188.495 119.719Z" fill="#382316"/>
        <path d="M216.219 59.4456C219.652 60.5359 222.078 62.7414 224.547 65.3048C226.816 67.6685 229.159 70.7895 229.034 74.1852C229.026 74.4599 228.885 75.4586 228.444 75.417C227.472 75.3171 226.99 74.2102 226.516 73.4278C225.536 71.8215 224.264 70.3984 222.993 69.0251C220.499 66.3119 217.931 63.7651 215.729 60.8189C215.555 60.5858 215.862 59.3374 216.219 59.4456Z" fill="#382316"/>
        <path d="M143.268 44.6895C148.595 41.144 155.485 39.1382 161.876 39.8623C162.125 39.8956 161.793 40.8943 161.585 40.9692C158.385 42.0428 155.202 43.0083 151.961 43.9321C149.011 44.781 146.052 45.8463 142.952 45.8963C142.653 45.8963 143.11 44.7977 143.268 44.6895Z" fill="#382316"/>
        <path d="M189.924 23.6828C191.171 26.9204 192.534 30.8653 194.653 33.9947C192.767 36.0088 190.489 37.6068 187.838 38.5056C180.467 40.9941 176.652 36.5415 170.652 33.3622C170.087 33.0542 169.031 34.7854 169.197 35.2681C172.846 45.838 185.046 44.3981 192.16 38.6554C193.398 37.6567 194.553 36.5331 195.634 35.3263C197.329 37.3821 199.448 38.8968 202.257 39.3213C202.748 39.3878 203.945 37.6983 203.512 37.3321C201.509 35.6593 199.839 33.795 198.401 31.7559C201.867 26.5958 203.978 20.3953 204.011 14.4112C204.053 6.42972 194.462 -6.76185 188.196 4.21587C184.655 10.4163 187.572 17.5656 189.924 23.6828ZM194.155 23.6578C192.451 19.2301 189.874 14.4279 189.235 9.70057C188.005 0.503915 194.346 2.23505 197.155 5.54751C198.642 7.30361 199.914 9.21784 200.512 11.4733C201.302 14.4862 201.568 17.6072 201.027 20.7033C200.462 23.9575 199.257 27.3448 197.446 30.316C196.157 28.252 195.069 26.0298 194.155 23.6578Z" fill="#F6B334"/>
    </g>
    <defs>
        <clipPath id="clip0">
            <rect width="257" height="230" fill="white"/>
        </clipPath>
    </defs>
</svg>
