<svg width="24" height="24" viewBox="0 0 24 24" fill="none" xmlns="http://www.w3.org/2000/svg">
<path d="M19.2512 8.97986C21.0208 8.97986 22.4553 7.5453 22.4553 5.7757C22.4553 4.00609 21.0208 2.57153 19.2512 2.57153C17.4815 2.57153 16.047 4.00609 16.047 5.7757C16.047 7.5453 17.4815 8.97986 19.2512 8.97986Z" stroke="#22CADE" stroke-width="1.5" stroke-miterlimit="22.9256"/>
<path d="M19.2078 21.4288C20.9774 21.4288 22.412 19.9943 22.412 18.2247C22.412 16.4551 20.9774 15.0205 19.2078 15.0205C17.4382 15.0205 16.0037 16.4551 16.0037 18.2247C16.0037 19.9943 17.4382 21.4288 19.2078 21.4288Z" stroke="#22CADE" stroke-width="1.5" stroke-miterlimit="22.9256"/>
<path d="M5.06061 15.1122C6.83022 15.1122 8.26477 13.6776 8.26477 11.908C8.26477 10.1384 6.83022 8.70386 5.06061 8.70386C3.291 8.70386 1.85645 10.1384 1.85645 11.908C1.85645 13.6776 3.291 15.1122 5.06061 15.1122Z" stroke="#22CADE" stroke-width="1.5" stroke-miterlimit="22.9256"/>
<path d="M8.00806 10.6522L16.2067 6.7749" stroke="#22CADE" stroke-width="1.5" stroke-miterlimit="22.9256"/>
<path d="M8.06702 13.0166L16.2466 17.0014" stroke="#22CADE" stroke-width="1.5" stroke-miterlimit="22.9256"/>
</svg>
