<svg width="27" height="27" viewBox="0 0 27 27" fill="none" xmlns="http://www.w3.org/2000/svg">
<path d="M11.4521 4.05957C11.8233 3.33232 12.8624 3.33232 13.2336 4.05957L15.8116 9.1113C15.9569 9.39602 16.2296 9.59412 16.5453 9.64432L22.1464 10.5351C22.9528 10.6634 23.2739 11.6517 22.6969 12.2294L18.6891 16.2423C18.4632 16.4685 18.3591 16.789 18.4089 17.1048L19.2925 22.7071C19.4197 23.5136 18.579 24.1244 17.8513 23.7542L12.7963 21.1826C12.5114 21.0376 12.1743 21.0376 11.8894 21.1826L6.83441 23.7542C6.10668 24.1244 5.26599 23.5136 5.3932 22.7071L6.27683 17.1048C6.32664 16.789 6.22249 16.4685 5.99661 16.2423L1.98879 12.2294C1.41182 11.6517 1.73294 10.6634 2.53928 10.5351L8.14043 9.64432C8.45612 9.59412 8.72878 9.39602 8.87408 9.1113L11.4521 4.05957Z" fill="#22CADE"/>
<path d="M15.1027 1.97264L17.6807 7.02437C17.8987 7.45145 18.3077 7.7486 18.7812 7.82391L24.3823 8.71472C24.7855 8.77884 24.9461 9.27299 24.6576 9.56184L20.6498 13.5748C20.311 13.9141 20.1547 14.3949 20.2294 14.8685L21.1131 20.4708C21.1767 20.874 20.7563 21.1794 20.3925 20.9943L15.3374 18.4227C14.9101 18.2053 14.4045 18.2053 13.9772 18.4227L8.92215 20.9943C8.55829 21.1794 8.13794 20.874 8.20155 20.4708L9.08518 14.8685C9.15988 14.3949 9.00366 13.9141 8.66484 13.5748L4.65702 9.56184C4.36854 9.27299 4.5291 8.77885 4.93227 8.71472L10.5334 7.82391C11.0069 7.7486 11.4159 7.45145 11.6339 7.02437L14.212 1.97264C14.3975 1.60902 14.9171 1.60902 15.1027 1.97264Z" stroke="#22CADE"/>
</svg>
