<svg width="22" height="22" viewBox="0 0 22 22" fill="none" xmlns="http://www.w3.org/2000/svg">
<g clip-path="url(#clip0)">
<path d="M10.9991 7.56815C10.4859 7.56815 10.1467 7.99658 10.1467 8.42055V13.5439C10.1467 14.0571 10.4859 14.3963 10.9991 14.3963C11.5123 14.3963 11.8516 13.9678 11.8516 13.5439V8.42055C11.8516 7.90733 11.5123 7.56815 10.9991 7.56815Z" fill="#22CADE"/>
<path d="M10.9991 17.8103C11.4699 17.8103 11.8515 17.4287 11.8515 16.9579C11.8515 16.4871 11.4699 16.1055 10.9991 16.1055C10.5284 16.1055 10.1467 16.4871 10.1467 16.9579C10.1467 17.4287 10.5284 17.8103 10.9991 17.8103Z" fill="#22CADE"/>
<path d="M21.585 17.4666L12.3648 2.52962C11.5972 1.33359 10.4012 1.33359 9.63359 2.52962L0.41789 17.4666C-0.5193 19.0866 0.16351 20.3675 2.03789 20.3675H19.8757C21.8394 20.3675 22.5222 19.0911 21.585 17.4666ZM20.1346 19.515H1.8683C0.931113 19.515 0.587477 18.8322 1.1007 18.0646L10.4905 2.87326C10.7448 2.36004 11.2581 2.36004 11.6016 2.87326L20.9914 18.0646C21.4154 18.8322 21.0718 19.515 20.1346 19.515Z" fill="#22CADE"/>
</g>
<defs>
<clipPath id="clip0">
<rect width="22" height="22" fill="white"/>
</clipPath>
</defs>
</svg>
